<svg width="64" height="64" viewBox="0 0 64 64" fill="none" xmlns="http://www.w3.org/2000/svg">
<g clip-path="url(#clip0_139_1684)">
<path d="M38.1904 46.7006V24.1438C38.1904 22.7203 39.3551 21.5557 40.7786 21.5557C42.2021 21.5557 43.3667 22.7205 43.3667 24.1438V39.4577" stroke="#191919" stroke-width="2" stroke-miterlimit="22.9256" stroke-linejoin="round"/>
<path d="M43.3667 34.9285C43.3667 33.505 44.5314 32.3403 45.9549 32.3403C47.3785 32.3403 48.543 33.5049 48.543 34.9285V40.1048M53.7195 37.5166C53.7195 36.0932 54.8842 34.9285 56.3077 34.9285C57.7311 34.9285 58.8958 36.0933 58.8958 37.5166V49.8125L56.3077 57.5092H40.7109L34.4399 49.8125V40.0829L38.1905 36.8354M53.7195 40.7519V36.2226C53.7195 34.7991 52.5548 33.6344 51.1313 33.6344C49.7079 33.6344 48.5432 34.7991 48.5432 36.2226" stroke="#191919" stroke-width="2" stroke-miterlimit="22.9256" stroke-linejoin="round"/>
<path d="M40.7109 57.5092V63.0624H49.7442M51.6195 63.0624H56.3077V57.5092" stroke="#191919" stroke-width="2" stroke-miterlimit="22.9256" stroke-linejoin="round"/>
<path d="M38.1904 25.7536L32.1005 28.6872L33.3947 19.1421L26.7372 12.1807L31.1055 11.3886M32.9512 11.0541L36.2152 10.4622L40.7785 1.97937L45.3419 10.4622L54.8198 12.1809L48.1622 19.1422L49.4564 28.6873L43.3666 25.7538" stroke="#191919" stroke-width="2" stroke-miterlimit="22.9256" stroke-linejoin="round"/>
<path fill-rule="evenodd" clip-rule="evenodd" d="M16.4844 19.8281L19.8759 26.1326L26.92 27.4099L21.9721 32.5838L22.9339 39.6778L16.4844 36.5708L10.0348 39.6778L10.9967 32.5838L6.04883 27.4099L13.0928 26.1326L16.4844 19.8281Z" stroke="#191919" stroke-width="2" stroke-miterlimit="22.9256" stroke-linejoin="round"/>
<path fill-rule="evenodd" clip-rule="evenodd" d="M20.2349 46.1737L22.3726 50.1476L26.8127 50.9528L23.6938 54.214L24.3002 58.6856L20.2349 56.7271L16.1695 58.6856L16.7759 54.214L13.657 50.9528L18.0971 50.1476L20.2349 46.1737Z" stroke="#191919" stroke-width="2" stroke-miterlimit="22.9256" stroke-linejoin="round"/>
</g>
<defs>
<clipPath id="clip0_139_1684">
<rect width="64" height="64" fill="white"/>
</clipPath>
</defs>
</svg>
