<svg width="64" height="64" viewBox="0 0 64 64" fill="none" xmlns="http://www.w3.org/2000/svg">
<g clip-path="url(#clip0_1664_409)">
<path d="M30.0874 31.6655L32.374 29.6012C31.4731 27.4262 31.4708 27.4206 30.5698 25.2456L27.4933 25.4028C26.4449 24.3544 25.9154 23.8249 24.8672 22.7767L25.0243 19.7002C22.8494 18.7993 22.8438 18.797 20.6688 17.896L18.6045 20.1826H14.8906L12.8262 17.896C10.6513 18.7968 10.6457 18.7992 8.47074 19.7002L8.62788 22.7767C7.57954 23.825 7.04999 24.3546 6.00177 25.4028L2.92525 25.2456C2.02442 27.4206 2.02205 27.4262 1.12109 29.6012L3.40767 31.6655V35.3794L1.12122 37.4436C2.02205 39.6185 2.02442 39.6242 2.92538 41.7991L6.0019 41.642C7.05024 42.6903 7.57979 43.2198 8.628 44.2681L8.47087 47.3446C10.6458 48.2454 10.6514 48.2478 12.8264 49.1487L14.8907 46.8622H18.6046L20.6689 49.1487C22.8439 48.2479 22.8495 48.2455 25.0244 47.3446L24.8673 44.2681C25.9157 43.2197 26.4452 42.6902 27.4934 41.642L30.5699 41.7991C31.4708 39.6242 31.4731 39.6185 32.3741 37.4436L30.0875 35.3793L30.0874 31.6655Z" stroke="#191919" stroke-width="2" stroke-miterlimit="10"/>
<path d="M16.7483 40.0751C20.3674 40.0751 23.3012 37.1413 23.3012 33.5222C23.3012 29.9031 20.3674 26.9692 16.7483 26.9692C13.1292 26.9692 10.1953 29.9031 10.1953 33.5222C10.1953 37.1413 13.1292 40.0751 16.7483 40.0751Z" stroke="#191919" stroke-width="2" stroke-miterlimit="10"/>
<path d="M39.0938 27.5326L42.8441 19.8206L46.5944 27.5326V59.245C46.5944 61.3163 44.9154 62.9954 42.8441 62.9954C40.7728 62.9954 39.0938 61.3163 39.0938 59.245V27.5326Z" stroke="#191919" stroke-width="2" stroke-miterlimit="10"/>
<path d="M39.0938 27.5327H46.5944" stroke="#191919" stroke-width="2" stroke-miterlimit="10"/>
<path d="M46.5944 55.8506H39.0938" stroke="#191919" stroke-width="2" stroke-miterlimit="10"/>
<path d="M46.5929 62.9954H56.5938L56.5938 8.19641H46.5929L46.5929 62.9954Z" stroke="#191919" stroke-width="2" stroke-miterlimit="10"/>
<path d="M46.5938 54.4104H53.1016" stroke="#191919" stroke-width="2" stroke-miterlimit="10"/>
<path d="M46.5938 49.0349H51.3514" stroke="#191919" stroke-width="2" stroke-miterlimit="10"/>
<path d="M46.5938 43.6594H53.1016" stroke="#191919" stroke-width="2" stroke-miterlimit="10"/>
<path d="M46.5938 38.2839H51.3514" stroke="#191919" stroke-width="2" stroke-miterlimit="10"/>
<path d="M46.5938 32.9084H53.1016" stroke="#191919" stroke-width="2" stroke-miterlimit="10"/>
<path d="M46.5938 27.533H51.3514" stroke="#191919" stroke-width="2" stroke-miterlimit="10"/>
<path d="M46.5938 22.1575H53.1016" stroke="#191919" stroke-width="2" stroke-miterlimit="10"/>
<path d="M46.5938 16.782H51.3514" stroke="#191919" stroke-width="2" stroke-miterlimit="10"/>
<path d="M63.0631 45.4421V55.4943C63.0631 57.5657 61.3842 59.2446 59.3127 59.2446H56.5938" stroke="#191919" stroke-width="2" stroke-miterlimit="10"/>
<path d="M34.8594 1.00439H59.314C61.3855 1.00439 63.0644 2.68329 63.0644 4.75472V43.5669" stroke="#191919" stroke-width="2" stroke-miterlimit="10"/>
<path d="M16.7461 20.1823V12.2554L27.9971 1.00439H32.9825" stroke="#191919" stroke-width="2" stroke-miterlimit="10"/>
<path d="M16.7461 46.8621V55.4941C16.7461 57.5655 18.425 59.2444 20.4964 59.2444H39.0918" stroke="#191919" stroke-width="2" stroke-miterlimit="10"/>
<path d="M27.9971 1.00464V8.5053C27.9971 10.5766 26.3181 12.2556 24.2468 12.2556H16.7461" stroke="#191919" stroke-width="2" stroke-miterlimit="10"/>
<path d="M42.8438 44.5043V42.6292" stroke="#191919" stroke-width="2" stroke-miterlimit="10"/>
<path d="M42.8438 40.7541V38.8789" stroke="#191919" stroke-width="2" stroke-miterlimit="10"/>
<path d="M16.7461 26.9692V40.0085" stroke="#191919" stroke-width="2" stroke-miterlimit="10"/>
</g>
<defs>
<clipPath id="clip0_1664_409">
<rect width="64" height="64" fill="white"/>
</clipPath>
</defs>
</svg>
