<svg width="64" height="64" viewBox="0 0 64 64" fill="none" xmlns="http://www.w3.org/2000/svg">
<g clip-path="url(#clip0_1664_492)">
<path d="M18.3108 33.7922V26.6725C18.3108 26.3797 18.5482 26.1424 18.841 26.1424H20.0443C20.4807 26.1424 20.7302 25.6445 20.469 25.2948L13.4233 15.8687C13.2113 15.5851 12.7862 15.5851 12.5742 15.8687L5.52833 25.295C5.26708 25.6445 5.51645 26.1425 5.95295 26.1425H7.15633C7.44908 26.1425 7.68645 26.3798 7.68645 26.6726V61.3498C7.68645 62.2958 8.45333 63.0626 9.3992 63.0626H14.883" stroke="#191919" stroke-width="2" stroke-miterlimit="10" stroke-linecap="round" stroke-linejoin="round"/>
<path d="M56.3168 50.3879V61.3498C56.3168 62.2958 55.5499 63.0626 54.6041 63.0626H49.2734" stroke="#191919" stroke-width="2" stroke-miterlimit="10" stroke-linecap="round" stroke-linejoin="round"/>
<path d="M45.6903 33.893V18.7689C45.6903 18.4762 45.453 18.2388 45.1602 18.2388H43.9568C43.5205 18.2388 43.271 17.7409 43.5322 17.3913L50.5778 7.96516C50.7898 7.68154 51.215 7.68154 51.427 7.96516L58.4726 17.3913C58.7338 17.7408 58.4845 18.2388 58.048 18.2388H56.8446C56.5518 18.2388 56.3145 18.4762 56.3145 18.7689V46.0129" stroke="#191919" stroke-width="2" stroke-miterlimit="10" stroke-linecap="round" stroke-linejoin="round"/>
<path d="M26.6445 21.0227V33.6601" stroke="#191919" stroke-width="2" stroke-miterlimit="10" stroke-linecap="round" stroke-linejoin="round"/>
<path d="M37.2679 33.66V11.9538C37.2679 11.6611 37.5052 11.4237 37.798 11.4237H39.0014C39.4377 11.4237 39.6872 10.9258 39.426 10.5762L32.3802 1.15022C32.1682 0.866594 31.7431 0.866594 31.5311 1.15022L24.4854 10.5762C24.2241 10.9257 24.4735 11.4237 24.91 11.4237H26.1134C26.4061 11.4237 26.6435 11.6611 26.6435 11.9538V16.6476" stroke="#191919" stroke-width="2" stroke-miterlimit="10" stroke-linecap="round" stroke-linejoin="round"/>
<path d="M12.5547 43.7983V60.126C12.5547 61.7477 13.8694 63.0625 15.4912 63.0625H48.4252C50.0469 63.0625 51.3617 61.7477 51.3617 60.126V44.1733" stroke="#191919" stroke-width="2" stroke-miterlimit="10" stroke-linecap="round" stroke-linejoin="round"/>
<path d="M26.6459 47.2189H16.3629C14.2597 47.2189 12.5547 45.5139 12.5547 43.4106V36.9414C12.5547 35.4144 13.7926 34.1765 15.3196 34.1765H48.5968C50.1238 34.1765 51.3616 35.4144 51.3616 36.9414V43.4106C51.3616 45.5139 49.6566 47.2189 47.5533 47.2189H37.2703" stroke="#191919" stroke-width="2" stroke-miterlimit="10" stroke-linecap="round" stroke-linejoin="round"/>
<path d="M34.8445 49.3564H29.0665C27.9576 49.3564 27.0586 48.4575 27.0586 47.3485V47.0892C27.0586 45.9803 27.9575 45.0813 29.0665 45.0813H34.8445C35.9533 45.0813 36.8523 45.9802 36.8523 47.0892V47.3485C36.8523 48.4575 35.9535 49.3564 34.8445 49.3564Z" stroke="#191919" stroke-width="2" stroke-miterlimit="10" stroke-linecap="round" stroke-linejoin="round"/>
<path d="M23.0977 34.1766V30.1562C23.0977 29.3517 23.7499 28.6995 24.5544 28.6995H39.4444C40.2489 28.6995 40.9012 29.3516 40.9012 30.1562V34.1765" stroke="#191919" stroke-width="2" stroke-miterlimit="10" stroke-linecap="round" stroke-linejoin="round"/>
</g>
<defs>
<clipPath id="clip0_1664_492">
<rect width="64" height="64" fill="white"/>
</clipPath>
</defs>
</svg>
