<svg width="56" height="56" viewBox="0 0 56 56" fill="none" xmlns="http://www.w3.org/2000/svg">
<g clip-path="url(#clip0_56_839)">
<path d="M1 11L25.2667 27L50 11" stroke="#191919" stroke-width="2.5"/>
<rect x="1.25" y="5.25" width="48.5" height="37.5" stroke="#191919" stroke-width="2.5"/>
</g>
<defs>
<clipPath id="clip0_56_839">
<rect width="56" height="56" fill="white"/>
</clipPath>
</defs>
</svg>
