<svg width="64" height="64" viewBox="0 0 64 64" fill="none" xmlns="http://www.w3.org/2000/svg">
<g clip-path="url(#clip0_58_1238)">
<path d="M32 8.32422V16.4068" stroke="#191919" stroke-width="2" stroke-miterlimit="10" stroke-linecap="round" stroke-linejoin="round"/>
<path d="M8.32425 32H16.4069" stroke="#191919" stroke-width="2" stroke-miterlimit="10" stroke-linecap="round" stroke-linejoin="round"/>
<path d="M43.5734 25.1376H52.4008C53.4363 25.1376 54.2758 24.2981 54.2758 23.2626V18.0654" stroke="#191919" stroke-width="2" stroke-miterlimit="10" stroke-linecap="round" stroke-linejoin="round"/>
<path d="M46.625 38.8625H43.2971" stroke="#191919" stroke-width="2" stroke-miterlimit="10" stroke-linecap="round" stroke-linejoin="round"/>
<path d="M54.2757 45.9348V40.7375C54.2757 39.702 53.4362 38.8625 52.4007 38.8625H51" stroke="#191919" stroke-width="2" stroke-miterlimit="10" stroke-linecap="round" stroke-linejoin="round"/>
<path d="M20.4266 25.1376H11.5993C10.5638 25.1376 9.72425 24.2981 9.72425 23.2626V18.0654" stroke="#191919" stroke-width="2" stroke-miterlimit="10" stroke-linecap="round" stroke-linejoin="round"/>
<path d="M20.4266 38.8625H11.5993C10.5638 38.8625 9.72425 39.702 9.72425 40.7375V45.9348" stroke="#191919" stroke-width="2" stroke-miterlimit="10" stroke-linecap="round" stroke-linejoin="round"/>
<path d="M60.338 11.8256L56.7845 10.2129C56.0478 10.6439 55.191 10.8919 54.2759 10.8919C53.3608 10.8919 52.504 10.6438 51.7673 10.2129L48.2138 11.8256C47.2469 12.2645 46.6259 13.2281 46.6259 14.29V16.9829C46.6259 17.5808 47.1105 18.0654 47.7084 18.0654H60.8434C61.4413 18.0654 61.9259 17.5808 61.9259 16.9829V14.29C61.9258 13.2283 61.3049 12.2645 60.338 11.8256Z" stroke="#191919" stroke-width="2" stroke-miterlimit="10" stroke-linecap="round" stroke-linejoin="round"/>
<path d="M49.7566 8.00012C50.5456 9.70699 52.2718 10.892 54.2758 10.892C57.0246 10.892 59.253 8.66362 59.253 5.91487C59.253 3.16612 57.0246 0.937744 54.2758 0.937744C52.3529 0.937744 50.6858 2.02887 49.8569 3.62524" stroke="#191919" stroke-width="2" stroke-miterlimit="10" stroke-linecap="round" stroke-linejoin="round"/>
<path d="M15.7864 11.8254L12.2329 10.2126C11.4961 10.6436 10.6394 10.8916 9.72425 10.8916C8.80913 10.8916 7.95238 10.6435 7.21563 10.2126L3.662 11.8254C2.69513 12.2641 2.07413 13.2279 2.07413 14.2896V16.9825C2.07413 17.5804 2.55875 18.065 3.15663 18.065H16.2916C16.8895 18.065 17.3741 17.5804 17.3741 16.9825V14.2896C17.3743 13.228 16.7533 12.2643 15.7864 11.8254Z" stroke="#191919" stroke-width="2" stroke-miterlimit="10" stroke-linecap="round" stroke-linejoin="round"/>
<path d="M9.72425 10.8918C12.473 10.8918 14.7014 8.66342 14.7014 5.91463C14.7014 3.16583 12.473 0.9375 9.72425 0.9375C6.97546 0.9375 4.74712 3.16583 4.74712 5.91463C4.74712 8.66342 6.97546 10.8918 9.72425 10.8918Z" stroke="#191919" stroke-width="2" stroke-miterlimit="10" stroke-linecap="round" stroke-linejoin="round"/>
<path d="M47.5931 33.5439V30.4565C47.5931 29.6314 46.9243 28.9625 46.0991 28.9625H45.3291C44.6843 28.9625 44.119 28.5464 43.911 27.936C43.7374 27.4261 43.532 26.931 43.297 26.453C43.0123 25.8736 43.1169 25.1791 43.5733 24.7227L44.1174 24.1786C44.7008 23.5952 44.7008 22.6492 44.1174 22.0659L41.9343 19.8827C41.3509 19.2994 40.4049 19.2994 39.8215 19.8827L39.2774 20.4269C38.8209 20.8834 38.1264 20.9879 37.547 20.7031C37.069 20.4682 36.5739 20.2629 36.064 20.0891C35.4536 19.8812 35.0375 19.3159 35.0375 18.671V17.901C35.0375 17.0759 34.3686 16.407 33.5435 16.407H30.4561C29.631 16.407 28.9621 17.0759 28.9621 17.901V18.671C28.9621 19.3159 28.546 19.8811 27.9356 20.0891C27.4258 20.2627 26.9306 20.4681 26.4525 20.7031C25.8731 20.9879 25.1786 20.8832 24.7223 20.4269L24.1781 19.8827C23.5948 19.2994 22.6488 19.2994 22.0654 19.8827L19.8823 22.0659C19.2988 22.6492 19.2989 23.5952 19.8823 24.1786L20.4264 24.7227C20.8829 25.1792 20.9874 25.8737 20.7026 26.4531C20.4676 26.9311 20.2624 27.4264 20.0886 27.9361C19.8808 28.5465 19.3154 28.9626 18.6705 28.9626H17.9005C17.0754 28.9626 16.4065 29.6315 16.4065 30.4566V33.544C16.4065 34.3691 17.0754 35.038 17.9005 35.038H18.6705C19.3154 35.038 19.8806 35.4541 20.0886 36.0645C20.2624 36.5744 20.4678 37.0695 20.7026 37.5475C20.9874 38.1269 20.8829 38.8214 20.4264 39.2779L19.8823 39.822C19.2988 40.4054 19.2988 41.3514 19.8823 41.9347L22.0654 44.1179C22.6488 44.7012 23.5948 44.7012 24.1781 44.1179L24.7223 43.5737C25.1788 43.1172 25.8731 43.0127 26.4525 43.2975C26.9306 43.5324 27.4258 43.7377 27.9356 43.9115C28.546 44.1194 28.9621 44.6847 28.9621 45.3296V46.0996C28.9621 46.9247 29.631 47.5936 30.4561 47.5936H33.5435C34.3686 47.5936 35.0375 46.9247 35.0375 46.0996V45.3296C35.0375 44.6847 35.4536 44.1195 36.064 43.9115C36.5739 43.7377 37.069 43.5324 37.5471 43.2975C38.1265 43.0127 38.821 43.1172 39.2775 43.5737L39.8216 44.1179C40.405 44.7012 41.351 44.7012 41.9344 44.1179L44.1175 41.9347C44.7009 41.3514 44.7009 40.4054 44.1175 39.822L43.5734 39.2779C43.1169 38.8214 43.0124 38.1269 43.2971 37.5475C43.532 37.0695 43.7374 36.5744 43.9111 36.0645C44.119 35.4541 44.6844 35.038 45.3293 35.038H46.0993C46.9243 35.0377 47.5931 34.3689 47.5931 33.5439Z" stroke="#191919" stroke-width="2" stroke-miterlimit="10" stroke-linecap="round" stroke-linejoin="round"/>
<path d="M37.0575 26.7375C37.1454 27.1155 37.1933 27.5087 37.1933 27.913C37.1933 30.7765 34.8635 33.1063 32 33.1063C29.1365 33.1063 26.8068 30.7765 26.8068 27.913C26.8068 27.5088 26.8548 27.1157 26.9425 26.7377C25.5593 28.0675 24.6959 29.9343 24.6959 32C24.6959 36.0277 27.9725 39.3042 32 39.3042C36.0276 39.3042 39.3041 36.0275 39.3041 32C39.3043 29.9342 38.4408 28.0674 37.0575 26.7375Z" stroke="#191919" stroke-width="2" stroke-miterlimit="10"/>
<path d="M26.7795 26.8987C25.4918 28.2163 24.6959 30.0166 24.6959 32.0002C24.6959 36.0278 27.9725 39.3043 32 39.3043C36.0276 39.3043 39.3041 36.0277 39.3041 32.0002C39.3041 30.0166 38.5083 28.2163 37.2205 26.8987" stroke="#191919" stroke-width="2" stroke-miterlimit="10" stroke-linecap="round" stroke-linejoin="round"/>
<path d="M38.4346 35.4529L35.3314 32.0574C34.4196 32.7912 33.2615 33.2312 32 33.2312C30.7385 33.2312 29.5804 32.7911 28.6686 32.0574L25.5654 35.4529" stroke="#191919" stroke-width="2" stroke-miterlimit="10" stroke-linecap="round" stroke-linejoin="round"/>
<path d="M32 33.2315C34.9372 33.2315 37.3182 30.8504 37.3182 27.9132C37.3182 24.976 34.9372 22.595 32 22.595C29.0628 22.595 26.6817 24.976 26.6817 27.9132C26.6817 30.8504 29.0628 33.2315 32 33.2315Z" stroke="#191919" stroke-width="2" stroke-miterlimit="10" stroke-linecap="round" stroke-linejoin="round"/>
<path d="M35.0408 59.5342C35.4452 57.8563 34.4128 56.1682 32.7349 55.7638C31.057 55.3595 29.369 56.3919 28.9646 58.0698C28.5602 59.7477 29.5926 61.4357 31.2705 61.8401C32.9484 62.2445 34.6365 61.2121 35.0408 59.5342Z" stroke="#191919" stroke-width="2" stroke-miterlimit="10" stroke-linecap="round" stroke-linejoin="round"/>
<path d="M35.0394 5.93089C35.4438 4.25298 34.4114 2.56495 32.7335 2.16058C31.0556 1.7562 29.3676 2.7886 28.9632 4.46651C28.5588 6.14442 29.5912 7.83245 31.2691 8.23683C32.947 8.6412 34.635 7.6088 35.0394 5.93089Z" stroke="#191919" stroke-width="2" stroke-miterlimit="10" stroke-linecap="round" stroke-linejoin="round"/>
<path d="M61.8419 32.7319C62.2463 31.054 61.2139 29.366 59.5359 28.9616C57.858 28.5572 56.17 29.5896 55.7656 31.2675C55.3613 32.9454 56.3937 34.6335 58.0716 35.0379C59.7495 35.4422 61.4375 34.4098 61.8419 32.7319Z" stroke="#191919" stroke-width="2" stroke-miterlimit="10" stroke-linecap="round" stroke-linejoin="round"/>
<path d="M8.2384 32.7331C8.64278 31.0552 7.61037 29.3672 5.93246 28.9628C4.25455 28.5584 2.56653 29.5908 2.16215 31.2688C1.75777 32.9467 2.79018 34.6347 4.46809 35.0391C6.146 35.4434 7.83402 34.411 8.2384 32.7331Z" stroke="#191919" stroke-width="2" stroke-miterlimit="10" stroke-linecap="round" stroke-linejoin="round"/>
<path d="M60.338 56.8227L56.7845 55.21C56.0478 55.641 55.191 55.889 54.2759 55.889C53.3608 55.889 52.504 55.6408 51.7673 55.21L48.2138 56.8227C47.2469 57.2616 46.6259 58.2252 46.6259 59.2871V61.98C46.6259 62.5778 47.1105 63.0625 47.7084 63.0625H60.8434C61.4413 63.0625 61.9259 62.5778 61.9259 61.98V59.2871C61.9258 58.2252 61.3049 57.2616 60.338 56.8227Z" stroke="#191919" stroke-width="2" stroke-miterlimit="10" stroke-linecap="round" stroke-linejoin="round"/>
<path d="M54.2758 55.8891C57.0245 55.8891 59.2529 53.6607 59.2529 50.9119C59.2529 48.1632 57.0245 45.9348 54.2758 45.9348C51.527 45.9348 49.2986 48.1632 49.2986 50.9119C49.2986 53.6607 51.527 55.8891 54.2758 55.8891Z" stroke="#191919" stroke-width="2" stroke-miterlimit="10" stroke-linecap="round" stroke-linejoin="round"/>
<path d="M9.625 63.0625H16.2917C16.8896 63.0625 17.3742 62.5778 17.3742 61.98V59.2871C17.3742 58.2253 16.7534 57.2616 15.7864 56.8227L12.2329 55.21C11.4961 55.641 10.6394 55.889 9.72425 55.889C8.80912 55.889 7.95237 55.6408 7.21562 55.21L3.66212 56.8227C2.69525 57.2616 2.07425 58.2252 2.07425 59.2871V61.98C2.07425 62.5778 2.55887 63.0625 3.15675 63.0625H5.25" stroke="#191919" stroke-width="2" stroke-miterlimit="10" stroke-linecap="round" stroke-linejoin="round"/>
<path d="M9.72426 55.8891C12.473 55.8891 14.7014 53.6607 14.7014 50.9119C14.7014 48.1632 12.473 45.9348 9.72426 45.9348C6.97547 45.9348 4.74713 48.1632 4.74713 50.9119C4.74713 53.6607 6.97547 55.8891 9.72426 55.8891Z" stroke="#191919" stroke-width="2" stroke-miterlimit="10" stroke-linecap="round" stroke-linejoin="round"/>
<path d="M32 47.593V55.6756" stroke="#191919" stroke-width="2" stroke-miterlimit="10" stroke-linecap="round" stroke-linejoin="round"/>
<path d="M47.5931 32H55.6758" stroke="#191919" stroke-width="2" stroke-miterlimit="10" stroke-linecap="round" stroke-linejoin="round"/>
</g>
<defs>
<clipPath id="clip0_58_1238">
<rect width="64" height="64" fill="white"/>
</clipPath>
</defs>
</svg>
